0 0 0 0 0 0 0 0 0 0 
0 0 2.0 0 1.0 0 1.0 0 0 0 
0 2.0 0 0 9.0 9.0 9.0 10.0 0 0 
0 0 0 0 0 0 0 0 0 0 
0 1.0 9.0 0 0 4.0 0 1.0 0 0 
0 0 9.0 0 4.0 0 4.0 2.0 0 0 
0 1.0 9.0 0 0 4.0 0 2.0 10.0 1.0 
0 0 10.0 0 1.0 2.0 2.0 0 0 0 
0 0 0 0 0 0 10.0 0 0 2.0 
0 0 0 0 0 0 1.0 0 2.0 0 
